tipo,mes,monto_2019,monto_2018,monto_2017,monto_2016,monto_2015,monto_2014,monto_2013,monto_2012,monto_2011,monto_2010,monto_2009
menor,1,1496.14,1404.16,1298.95,1186.91,1096.35,1010.27,939.96,865.53,809.44,764.34,700
complemento,1,641.22,601.79,556.69,508.68,469.87,432.98,402.85,370.95,346.91,327.58,300
menor,2,1615.23,1496.14,1404.16,1298.95,1186.91,1096.35,1010.27,939.96,865.53,809.44,764.34
complemento,2,692.25,641.22,601.79,556.69,508.68,469.87,432.98,402.85,370.95,346.91,327.58
